Plus-Minus Hockey Stat Analysis
…
The Question

I will seek to answer the following question: How useful is plus-minus in predicting player productivity? This is a hotly debated question within the hockey world as it is seen by many as a stat that has very little bearing over a players production. The reason for this debate its largely due to how the plus-minus stat is calculated in hockey. The plus-minus stat is calculated by taking the total number of goals scored for a players team while they are on the ice except for goals scored by their team on the power play minus the number of goals scored by the opponents while they are on the ice except goals scored by the opponents on the power play. The reason this is controversial is that if a player is playing on the power play, their plus-minus stat can only be hurt, because they will lose a point if they are scored on but will not gain any points if they score. By analyzing how plus-minus correlates to other important stats, I hope to evaluate its usefulness as a stat.

Data Curation

The player statistics I used were found on Kaggle. These statistics were for the 2004-2018 seasons. The data was downloaded as a .csv and placed into the same directory as the rmarkdown file. I then used the following code to load the data:

library(tidyverse)
stats <- read_csv("NHL 2004-2018 Player Data.csv")
stats

## # A tibble: 13,186 x 31
##       Rk Player   Age Pos   Tm       GP     G     A   PTS plusminus   PIM    PS
##    <dbl> <chr>  <dbl> <chr> <chr> <dbl> <dbl> <dbl> <dbl>     <dbl> <dbl> <dbl>
##  1     1 "Conn~    20 C     EDM      82    30    70   100        27    26  12.8
##  2     2 "Sidn~    29 C     PIT      75    44    45    89        17    24  12.3
##  3     3 "Patr~    28 RW    CHI      82    34    55    89        11    32  10.8
##  4     4 "Nick~    29 C     WSH      82    23    63    86        17    38   9.9
##  5     5 "Niki~    23 RW    TBL      74    40    45    85        13    38  12  
##  6     6 "Brad~    28 LW    BOS      80    39    46    85        18    81  12.6
##  7     7 "Mark~    23 C     WPG      79    32    50    82        18    38  10.3
##  8     8 "Leon~    21 C     EDM      82    29    48    77         7    20   9.6
##  9     9 "Bren~    31 D     SJS      82    29    47    76        19    40  15.3
## 10    10 "Vlad~    25 RW    STL      82    39    36    75        -1    12  10.2
## # ... with 13,176 more rows, and 19 more variables: EV <dbl>, PP <dbl>,
## #   SH <dbl>, GW <dbl>, EV_1 <dbl>, PP_1 <dbl>, SH_1 <dbl>, S <dbl>,
## #   S_percent <dbl>, TOI <dbl>, ATOI <dbl>, BLK <dbl>, HIT <dbl>, FOW <dbl>,
## #   FOL <dbl>, FO_percent <dbl>, HART <dbl>, Votes <dbl>, Season <dbl>

Data Management

The first thing we need to do is to clean the position column of our data because we only want to distinguish between forwards and defensemen. This dataset breaks forwards down into left wing, right wing, and center and sometimes a combination of those which we do not need for our dataset.

cleanstats <- stats %>%
  mutate(Position = ifelse(Pos == 'D', 'D', 'F'))
cleanstats

## # A tibble: 13,186 x 32
##       Rk Player   Age Pos   Tm       GP     G     A   PTS plusminus   PIM    PS
##    <dbl> <chr>  <dbl> <chr> <chr> <dbl> <dbl> <dbl> <dbl>     <dbl> <dbl> <dbl>
##  1     1 "Conn~    20 C     EDM      82    30    70   100        27    26  12.8
##  2     2 "Sidn~    29 C     PIT      75    44    45    89        17    24  12.3
##  3     3 "Patr~    28 RW    CHI      82    34    55    89        11    32  10.8
##  4     4 "Nick~    29 C     WSH      82    23    63    86        17    38   9.9
##  5     5 "Niki~    23 RW    TBL      74    40    45    85        13    38  12  
##  6     6 "Brad~    28 LW    BOS      80    39    46    85        18    81  12.6
##  7     7 "Mark~    23 C     WPG      79    32    50    82        18    38  10.3
##  8     8 "Leon~    21 C     EDM      82    29    48    77         7    20   9.6
##  9     9 "Bren~    31 D     SJS      82    29    47    76        19    40  15.3
## 10    10 "Vlad~    25 RW    STL      82    39    36    75        -1    12  10.2
## # ... with 13,176 more rows, and 20 more variables: EV <dbl>, PP <dbl>,
## #   SH <dbl>, GW <dbl>, EV_1 <dbl>, PP_1 <dbl>, SH_1 <dbl>, S <dbl>,
## #   S_percent <dbl>, TOI <dbl>, ATOI <dbl>, BLK <dbl>, HIT <dbl>, FOW <dbl>,
## #   FOL <dbl>, FO_percent <dbl>, HART <dbl>, Votes <dbl>, Season <dbl>,
## #   Position <chr>

Next, we need to calculate special teams points. This is done by simply adding powerplay goals, powerplay assists, short handed goals, and short handed assists.

cleanstats <- cleanstats %>%
  mutate(STP = PP+SH+PP_1+SH_1)
cleanstats

## # A tibble: 13,186 x 33
##       Rk Player   Age Pos   Tm       GP     G     A   PTS plusminus   PIM    PS
##    <dbl> <chr>  <dbl> <chr> <chr> <dbl> <dbl> <dbl> <dbl>     <dbl> <dbl> <dbl>
##  1     1 "Conn~    20 C     EDM      82    30    70   100        27    26  12.8
##  2     2 "Sidn~    29 C     PIT      75    44    45    89        17    24  12.3
##  3     3 "Patr~    28 RW    CHI      82    34    55    89        11    32  10.8
##  4     4 "Nick~    29 C     WSH      82    23    63    86        17    38   9.9
##  5     5 "Niki~    23 RW    TBL      74    40    45    85        13    38  12  
##  6     6 "Brad~    28 LW    BOS      80    39    46    85        18    81  12.6
##  7     7 "Mark~    23 C     WPG      79    32    50    82        18    38  10.3
##  8     8 "Leon~    21 C     EDM      82    29    48    77         7    20   9.6
##  9     9 "Bren~    31 D     SJS      82    29    47    76        19    40  15.3
## 10    10 "Vlad~    25 RW    STL      82    39    36    75        -1    12  10.2
## # ... with 13,176 more rows, and 21 more variables: EV <dbl>, PP <dbl>,
## #   SH <dbl>, GW <dbl>, EV_1 <dbl>, PP_1 <dbl>, SH_1 <dbl>, S <dbl>,
## #   S_percent <dbl>, TOI <dbl>, ATOI <dbl>, BLK <dbl>, HIT <dbl>, FOW <dbl>,
## #   FOL <dbl>, FO_percent <dbl>, HART <dbl>, Votes <dbl>, Season <dbl>,
## #   Position <chr>, STP <dbl>

Next, we should drop any player seasons with less than 60 games as these players were likely injured and may skew our data.

cleanstats <- cleanstats %>%
  filter(GP > 60)
cleanstats

## # A tibble: 6,193 x 33
##       Rk Player   Age Pos   Tm       GP     G     A   PTS plusminus   PIM    PS
##    <dbl> <chr>  <dbl> <chr> <chr> <dbl> <dbl> <dbl> <dbl>     <dbl> <dbl> <dbl>
##  1     1 "Conn~    20 C     EDM      82    30    70   100        27    26  12.8
##  2     2 "Sidn~    29 C     PIT      75    44    45    89        17    24  12.3
##  3     3 "Patr~    28 RW    CHI      82    34    55    89        11    32  10.8
##  4     4 "Nick~    29 C     WSH      82    23    63    86        17    38   9.9
##  5     5 "Niki~    23 RW    TBL      74    40    45    85        13    38  12  
##  6     6 "Brad~    28 LW    BOS      80    39    46    85        18    81  12.6
##  7     7 "Mark~    23 C     WPG      79    32    50    82        18    38  10.3
##  8     8 "Leon~    21 C     EDM      82    29    48    77         7    20   9.6
##  9     9 "Bren~    31 D     SJS      82    29    47    76        19    40  15.3
## 10    10 "Vlad~    25 RW    STL      82    39    36    75        -1    12  10.2
## # ... with 6,183 more rows, and 21 more variables: EV <dbl>, PP <dbl>,
## #   SH <dbl>, GW <dbl>, EV_1 <dbl>, PP_1 <dbl>, SH_1 <dbl>, S <dbl>,
## #   S_percent <dbl>, TOI <dbl>, ATOI <dbl>, BLK <dbl>, HIT <dbl>, FOW <dbl>,
## #   FOL <dbl>, FO_percent <dbl>, HART <dbl>, Votes <dbl>, Season <dbl>,
## #   Position <chr>, STP <dbl>

Next, we need to normalize most of the stats based on how many games the player played.

cleanstats <- cleanstats %>%
  mutate(Goals=G/GP, Assists=A/GP, Points=PTS/GP, Shots=S/GP, Blocks=BLK/GP, Hits=HIT/GP, SpecialTeamsPoints=STP/GP)
cleanstats

## # A tibble: 6,193 x 40
##       Rk Player   Age Pos   Tm       GP     G     A   PTS plusminus   PIM    PS
##    <dbl> <chr>  <dbl> <chr> <chr> <dbl> <dbl> <dbl> <dbl>     <dbl> <dbl> <dbl>
##  1     1 "Conn~    20 C     EDM      82    30    70   100        27    26  12.8
##  2     2 "Sidn~    29 C     PIT      75    44    45    89        17    24  12.3
##  3     3 "Patr~    28 RW    CHI      82    34    55    89        11    32  10.8
##  4     4 "Nick~    29 C     WSH      82    23    63    86        17    38   9.9
##  5     5 "Niki~    23 RW    TBL      74    40    45    85        13    38  12  
##  6     6 "Brad~    28 LW    BOS      80    39    46    85        18    81  12.6
##  7     7 "Mark~    23 C     WPG      79    32    50    82        18    38  10.3
##  8     8 "Leon~    21 C     EDM      82    29    48    77         7    20   9.6
##  9     9 "Bren~    31 D     SJS      82    29    47    76        19    40  15.3
## 10    10 "Vlad~    25 RW    STL      82    39    36    75        -1    12  10.2
## # ... with 6,183 more rows, and 28 more variables: EV <dbl>, PP <dbl>,
## #   SH <dbl>, GW <dbl>, EV_1 <dbl>, PP_1 <dbl>, SH_1 <dbl>, S <dbl>,
## #   S_percent <dbl>, TOI <dbl>, ATOI <dbl>, BLK <dbl>, HIT <dbl>, FOW <dbl>,
## #   FOL <dbl>, FO_percent <dbl>, HART <dbl>, Votes <dbl>, Season <dbl>,
## #   Position <chr>, STP <dbl>, Goals <dbl>, Assists <dbl>, Points <dbl>,
## #   Shots <dbl>, Blocks <dbl>, Hits <dbl>, SpecialTeamsPoints <dbl>

Next, we want to clean up the data by only selecting the data we want and renaming the columns to better names.

cleanstats <- cleanstats %>%
  select(Player, Team=Tm, Position, Goals, Assists, Points, Shots, TimeOnIce=ATOI, Blocks, Hits, SpecialTeamsPoints, PlusMinus=plusminus)
cleanstats

## # A tibble: 6,193 x 12
##    Player Team  Position Goals Assists Points Shots TimeOnIce Blocks  Hits
##    <chr>  <chr> <chr>    <dbl>   <dbl>  <dbl> <dbl>     <dbl>  <dbl> <dbl>
##  1 "Conn~ EDM   F        0.366   0.854  1.22   3.06    21.1    0.354 0.415
##  2 "Sidn~ PIT   F        0.587   0.6    1.19   3.4     19.9    0.36  1.07 
##  3 "Patr~ CHI   F        0.415   0.671  1.09   3.56    21.4    0.183 0.341
##  4 "Nick~ WSH   F        0.280   0.768  1.05   1.98    18.3    0.402 0.549
##  5 "Niki~ TBL   F        0.541   0.608  1.15   3.32    19.4    0.270 0.405
##  6 "Brad~ BOS   F        0.488   0.575  1.06   2.82    19.4    0.438 0.638
##  7 "Mark~ WPG   F        0.405   0.633  1.04   2.03    20.6    0.430 0.620
##  8 "Leon~ EDM   F        0.354   0.585  0.939  2.10    18.9    0.439 0.5  
##  9 "Bren~ SJS   D        0.354   0.573  0.927  3.90     0.867  1.73  0.841
## 10 "Vlad~ STL   F        0.476   0.439  0.915  3.49    18.5    0.378 0.610
## # ... with 6,183 more rows, and 2 more variables: SpecialTeamsPoints <dbl>,
## #   PlusMinus <dbl>

Finally, we want to divide the data up into two tables, one for forwards and one for defensemen with only the stats that are relevant to each position in that table.

dstats <- cleanstats %>%
  select(Player, Team, Position, TimeOnIce, Blocks, Hits, SpecialTeamsPoints, PlusMinus) %>%
  filter(Position == 'D')

fstats <- cleanstats %>%
  select(Player, Team, Position, Goals, Assists, Points, Shots, TimeOnIce, SpecialTeamsPoints, PlusMinus) %>%
  filter(Position == 'F')
dstats

## # A tibble: 2,040 x 8
##    Player       Team  Position TimeOnIce Blocks  Hits SpecialTeamsPoi~ PlusMinus
##    <chr>        <chr> <chr>        <dbl>  <dbl> <dbl>            <dbl>     <dbl>
##  1 "Brent Burn~ SJS   D            0.867   1.73 0.841            0.317        19
##  2 "Victor Hed~ TBL   D            0.5     1.67 1.18             0.418         3
##  3 "Erik Karls~ OTT   D            2.83    2.61 0.870            0.377        10
##  4 "Kevin Shat~ TOT   D           19.9     1.19 1.1              0.338        -7
##  5 "Duncan Kei~ CHI   D            1.62    1.34 0.3              0.188        22
##  6 "Dustin Byf~ WPG   D            3.45    1.55 2.29             0.2          10
##  7 "Justin Sch~ PIT   D           20.4     1.49 0.859            0.256        27
##  8 "Torey Krug~ BOS   D           21.6     1.01 0.728            0.309       -10
##  9 "Dougie Ham~ CGY   D           19.7     1.16 0.840            0.185        12
## 10 "John Kling~ DAL   D           23.4     1.46 0.525            0.212         2
## # ... with 2,030 more rows

fstats

## # A tibble: 4,153 x 10
##    Player Team  Position Goals Assists Points Shots TimeOnIce SpecialTeamsPoi~
##    <chr>  <chr> <chr>    <dbl>   <dbl>  <dbl> <dbl>     <dbl>            <dbl>
##  1 "Conn~ EDM   F        0.366   0.854  1.22   3.06      21.1            0.354
##  2 "Sidn~ PIT   F        0.587   0.6    1.19   3.4       19.9            0.333
##  3 "Patr~ CHI   F        0.415   0.671  1.09   3.56      21.4            0.280
##  4 "Nick~ WSH   F        0.280   0.768  1.05   1.98      18.3            0.427
##  5 "Niki~ TBL   F        0.541   0.608  1.15   3.32      19.4            0.432
##  6 "Brad~ BOS   F        0.488   0.575  1.06   2.82      19.4            0.362
##  7 "Mark~ WPG   F        0.405   0.633  1.04   2.03      20.6            0.215
##  8 "Leon~ EDM   F        0.354   0.585  0.939  2.10      18.9            0.329
##  9 "Vlad~ STL   F        0.476   0.439  0.915  3.49      18.5            0.268
## 10 "Arte~ CHI   F        0.378   0.524  0.902  2.57      19.5            0.207
## # ... with 4,143 more rows, and 1 more variable: PlusMinus <dbl>
…
Hypothesis Testing

By looking at the plots, it seems like plus minus has the largest correlation with points scored by forwards, so we will look to see if we can reliably predict plus-minus of a player based on their points scored. My hypothesis is that we will be able to estimate a forwards plus-minus within 10 points of its actual value 60% of the time by analyzing their points per game.

In order to do this we first need to calculate the predicted value and compare it with the actual value for every forward.

fstats$Prediction <- predict(loess(PlusMinus~Points, fstats), fstats$Points)
fstats$Difference <- abs(fstats$Prediction - fstats$PlusMinus)
fstats$Hypothesis <- fstats$Difference < 10

select(fstats, Player, Prediction, PlusMinus, Difference, Hypothesis)

## # A tibble: 4,153 x 5
##    Player                          Prediction PlusMinus Difference Hypothesis
##    <chr>                                <dbl>     <dbl>      <dbl> <lgl>     
##  1 "Connor McDavid\\mcdavco01"          15.2         27     11.8   FALSE     
##  2 "Sidney Crosby\\crosbsi01"           14.3         17      2.71  TRUE      
##  3 "Patrick Kane\\kanepa01"             11.5         11      0.458 TRUE      
##  4 "Nicklas Backstrom\\backsni02"       10.5         17      6.52  TRUE      
##  5 "Nikita Kucherov\\kucheni01"         13.2         13      0.202 TRUE      
##  6 "Brad Marchand\\marchbr03"           10.8         18      7.15  TRUE      
##  7 "Mark Scheifele\\scheima01"          10.2         18      7.80  TRUE      
##  8 "Leon Draisaitl\\draisle01"           7.72         7      0.715 TRUE      
##  9 "Vladimir Tarasenko\\tarasvl01"       7.13        -1      8.13  TRUE      
## 10 "Artemi Panarin\\panarar01"           6.84        18     11.2   FALSE     
## # ... with 4,143 more rows
…
